{
    "ecosystem": [
        {
            "type": "Protocol",
            "name": "Abacus",
            "logo": "https://abacus.wtf/static/b234b2bfa0417c7e8711c3a8d17afeec/portisIcon.png",
            "bg": "black",
            "description": "",
            "docs": "",
            "links":  
            {

            }
        },
        {
            "type": "Protocol",
            "name": "Antimatter",
            "logo": "https://pbs.twimg.com/profile_images/1542111442836627457/kqXhJ3gh_400x400.png",
            "bg": "black",
            "description": "NFts in BSC",
            "docs": "https://docs.antimatter.finance/introduction/antimatter-overview",
            "links": 
            {
                "website": "antimatter.finance",
                "github": "github.com/antimatter-dao",
                "twitter": "twitter.com/antimatterdefi",
                "bsc":"#"
            }
        },
        {
            "type": "Protocol",
            "name": "Charge Particles",
            "bg": "white",
            "logo": "",
            "description": "NFT protocols for DeFi",
            "docs": "docs.charged.fi",
            "links": {
                 "website": "charged.fi",
                "facebook": "https://www.facebook.com/etherscan/",
                "github": "github.com/Charged-Particles",
                "twitter": "twitter.com/DefiNft",
                "eth": "#"
            }
        },
        {
            "type": "Token",
            "name": "DAO envelop",
            "bg": "black",
            "logo": "https://iili.io/bY4SuR.png",
            "description": "Envelop Oracle monitor the transactions of NFTs, filter spam transactions and increase the value of NFTs, depending on the transactions performed.",
            "docs": "https://blog.envelop.is/where-can-i-see-wnft-from-dao-envelop-part-ii-iii-aa870eabd5dd",
            "links": {
                 "website": "https://envelop.is/",
                "github": "https://github.com/niftsy/niftsysmarts",
                "twitter": "https://twitter.com/Envelop_project",
                "aurora": "#",
                "avalanche": "#",
                "bsc": "#",
                "eth": "#",
                "evm": "#",
                "harmony": "#",
                "near": "#",
                "polygon": "#",
                "wax": "#",
                "zilliqa": "#"
            }
        },
        {
            "type": "Token",
            "name": "Drops DAO",
            "logo": "",
            "bg": "white",
            "description": "",
            "docs": "",
            "links": {
                 "website": "",
                "github": "",
                "twitter": ""
            }
        },
        {
            "type": "Token",
            "name": "Floor",
            "logo": "",
            "bg": "",
            "description": "",
            "docs": "",
            "links": {
                 "website": "",
                "github": "",
                "twitter": ""
            }
        },
        {
            "type": "Protocol",
            "name": "Gradients",
            "logo": "",
            "bg": "",
            "description": "",
            "docs": "",
            "links": {
                 "website": "",
                "github": "",
                "twitter": ""
            }
        },
        {
            "type": "Token",
            "name": "Hedgey",
            "logo": "",
            "bg": "",
            "description": "",
            "docs": "",
            "links": {
                 "website": "",
                "github": "",
                "twitter": ""
            }
        },
        {
            "type": "Token",
            "name": "Jpegd",
            "logo": "",
            "bg": "",
            "description": "",
            "docs": "",
            "links": {
                 "website": "",
                "github": "",
                "twitter": ""
            }
        },
        {
            "type": "Token",
            "name": "Emblem Vault",
            "logo": "",
            "bg": "",
            "description": "",
            "docs": "",
            "links": {
                 "website": "",
                "github": "",
                "twitter": ""
            }
        },
        {
            "type": "Token",
            "name": "Nested",
            "logo": "",
            "bg": "",
            "description": "",
            "docs": "",
            "links": {
                 "website": "",
                "github": "",
                "twitter": ""
            }
        },
        {
            "type": "Token",
            "name": "NFT20",
            "logo": "",
            "bg": "",
            "description": "",
            "docs": "",
            "links": {
                 "website": "",
                "github": "",
                "twitter": ""
            }
        },
        {
            "type": "Token",
            "name": "NftFi",
            "logo": "",
            "bg": "",
            "description": "",
            "docs": "",
            "links": {
                 "website": "",
                "github": "",
                "twitter": ""
            }
        },
        {
            "type": "Index",
            "name": "NFTx",
            "logo": "",
            "bg": "",
            "description": "IT is a platform for creating liquid markets for illiquid Non-Fungible Tokens (NFTs)",
            "docs": "",
            "links": {
                 "website": "nftx.io",
                "github": "docs.nftx.io",
                "twitter": "twitter.com/NFTX_",
                "eth": "#"
            }
        },
        {
            "type": "Token",
            "name": "Opensky.finance",
            "logo": "",
            "bg": "",
            "description": "",
            "docs": "",
            "links": {
                 "website": "",
                "github": "",
                "twitter": ""
            }
        },
        {
            "type": "Token",
            "name": "Phantasma",
            "logo": "",
            "bg": "",
            "description": "",
            "docs": "",
            "links": {
                 "website": "",
                "github": "",
                "twitter": ""
            }
        },
        {
            "type": "Token",
            "name": "Revest Finance",
            "logo": "",
            "bg": "",
            "description": "",
            "docs": "",
            "links": {
                 "website": "",
                "github": "",
                "twitter": ""
            }
        },
        {
            "type": "Token",
            "name": "Sawastarter",
            "logo": "",
            "bg": "",
            "description": "",
            "docs": "",
            "links": {
                 "website": "",
                "github": "",
                "twitter": ""
            }
        },
        {
            "type": "Protocol",
            "name": "Solv finance",
            "logo": "",
            "bg": "",
            "description": "All-in-one financial NFT tools",
            "docs": "docs.solv.finance",
            "links": {
                 "website": "solv.finance",
                "github": "github.com/solv-finance",
                "twitter": "twitter.com/SolvProtocol/ ",
                "bsc": "#",
                "eth": "#"
            }
        },
        {
            "type": "Token",
            "name": "Sudoswap",
            "logo": "",
            "bg": "",
            "description": "",
            "docs": "",
            "links": {
                 "website": "",
                "github": "",
                "twitter": ""
            }
        },
        {
            "type": "Token",
            "name": "Superbonds",
            "logo": "",
            "bg": "",
            "description": "",
            "docs": "",
            "links": {
                 "website": "",
                "github": "",
                "twitter": ""
            }
        },
        {
            "type": "Index",
            "name": "Theos",
            "logo": "",
            "bg": "",
            "description": "",
            "docs": "",
            "links": {
                 "website": "",
                "github": "",
                "twitter": ""
            }
        },
        {
            "type": "Index",
            "name": "Unicly",
            "logo": "",
            "bg": "",
            "description": "",
            "docs": "",
            "links": {
                 "website": "",
                "github": "",
                "twitter": ""
            }
        },
        {
            "type": "Index",
            "name": "UnlockProtocol",
            "logo": "",
            "bg": "",
            "description": "",
            "docs": "",
            "links": {
                 "website": "",
                "github": "",
                "twitter": ""
            }
        },
        {
            "type": "Index",
            "name": "Upshot",
            "logo": "",
            "bg": "",
            "description": "",
            "docs": "",
            "links": {
                 "website": "",
                "github": "",
                "twitter": ""
            }
        },
        {
            "type": "Index",
            "name": "Wrap Protocol",
            "logo": "",
            "bg": "",
            "description": "",
            "docs": "",
            "links": {
                 "website": "",
                "github": "",
                "twitter": ""
            }
        },
        {
            "type": "Index",
            "name": "Defrag",
            "logo": "",
            "bg": "",
            "description": "",
            "docs": "",
            "links": {
                 "website": "",
                "github": "",
                "twitter": ""
            }
        },
        {
            "type": "Index",
            "name": "Emblem Vault",
            "logo": "",
            "bg": "",
            "description": "",
            "docs": "",
            "links": {
                 "website": "",
                "github": "",
                "twitter": ""
            }
        }
    ]
}
